A course in Geographic Data Science - R
…
Densities_UK_cities <- read_csv("data/London/Tables/Densities_UK_cities.csv")

Rows: 76 Columns: 5
── Column specification ────────────────────────────────────────────────────────
Delimiter: ","
chr (2): city, pop
dbl (1): n
num (2): area, density

ℹ Use `spec()` to retrieve the full column specification for this data.
ℹ Specify the column types or set `show_col_types = FALSE` to quiet this message.

Densities_UK_cities

# A tibble: 76 × 5
       n city               pop        area density
   <dbl> <chr>              <chr>     <dbl>   <dbl>
 1     1 Greater London     9,787,426 1738.    5630
 2     2 Greater Manchester 2,553,379  630.    4051
 3     3 West Midlands      2,440,986  599.    4076
 4     4 West Yorkshire     1,777,934  488.    3645
 5     5 Greater Glasgow    957,620    368.    3390
 6     6 Liverpool          864,122    200.    4329
 7     7 South Hampshire    855,569    192     4455
 8     8 Tyneside           774,891    180.    4292
 9     9 Nottingham         729,977    176.    4139
10    10 Sheffield          685,368    168.    4092
# ℹ 66 more rows
…
