A course in Geographic Data Science - Lab
…
districts[,1] # read first column

Simple feature collection with 33 features and 1 field
Geometry type: POLYGON
Dimension:     XY
Bounding box:  xmin: 503568.1 ymin: 155850.8 xmax: 561957.4 ymax: 200933.9
Projected CRS: OSGB36 / British National Grid
# A tibble: 33 × 2
   DIST_CODE                                                            geometry
   <chr>                                                           <POLYGON [m]>
 1 00AA      ((531028.5 181611.2, 531036.1 181611.5, 531074 181610.3, 531107 18…
 2 00AB      ((550817 184196, 550814 184189.1, 550799 184162.6, 550797.2 184159…
 3 00AC      ((526830.3 187535.5, 526830.3 187535.4, 526829 187534.7, 526825.3 …
 4 00AD      ((552373.5 174606.9, 552372.9 174603.9, 552371 174595.3, 552367.9 …
 5 00AE      ((524661.7 184631, 524665.3 184626.4, 524667.9 184623.1, 524673.5 …
 6 00AF      ((533852.2 170129, 533850.4 170128.5, 533844.9 170127.9, 533842.6 …
 7 00AG      ((531410.7 181576.1, 531409.4 181573.1, 531409.4 181573.1, 531405 …
 8 00AH      ((532745.1 157404.6, 532756.3 157394.6, 532768.1 157384, 532777.3 …
 9 00AJ      ((512740.6 182181.6, 512740.1 182185.9, 512739.5 182190.5, 512739.…
10 00AK      ((530417 191627.4, 530416.8 191627.6, 530410 191631.2, 530396.3 19…
# ℹ 23 more rows
…
